Gene Signatures - How to score & interpret
…
ulm_start <- Sys.time()
res <- decoupleR::run_ulm(
    mat = pbmc3k@assays$RNA@data,
    network = sig_df,
    .source = "signature",
    .target = "gene",
    .mor = "mor")

glue::glue("Time to run ulm is {round(difftime(Sys.time(), ulm_start, units = 's'), 0)} seconds")

Time to run ulm is 24 seconds

res

# A tibble: 16,200 × 5
   statistic source  condition       score  p_value
   <chr>     <chr>   <chr>           <dbl>    <dbl>
 1 ulm       B cells AAACATACAACCAC -0.556 5.78e- 1
 2 ulm       B cells AAACATTGAGCTAC  9.47  3.13e-21
 3 ulm       B cells AAACATTGATCAGC -0.678 4.98e- 1
 4 ulm       B cells AAACCGTGCTTCCG  2.17  2.97e- 2
 5 ulm       B cells AAACCGTGTATGCG -0.475 6.35e- 1
 6 ulm       B cells AAACGCACTGGTAC  2.61  9.18e- 3
 7 ulm       B cells AAACGCTGACCAGT -0.563 5.73e- 1
 8 ulm       B cells AAACGCTGGTTCTT -0.565 5.72e- 1
 9 ulm       B cells AAACGCTGTAGCCA  1.27  2.03e- 1
10 ulm       B cells AAACGCTGTTTCTG  1.29  1.95e- 1
# ℹ 16,190 more rows
…
glue::glue("Time to run norm_wmean with 1000 iterations is {round(difftime(Sys.time(), wmean_start, units = 's'), 0)} seconds")

Time to run norm_wmean with 1000 iterations is 90 seconds

res_wmean

# A tibble: 48,600 × 5
   statistic  source  condition      score p_value
   <chr>      <chr>   <chr>          <dbl>   <dbl>
 1 corr_wmean B cells AAACATACAACCAC 0       0.576
 2 corr_wmean B cells AAACATTGAGCTAC 5.74    0.002
 3 corr_wmean B cells AAACATTGATCAGC 0       0.84 
 4 corr_wmean B cells AAACCGTGCTTCCG 0.549   0.13 
 5 corr_wmean B cells AAACCGTGTATGCG 0       0.422
 6 corr_wmean B cells AAACGCACTGGTAC 0.807   0.064
 7 corr_wmean B cells AAACGCTGACCAGT 0       0.59 
 8 corr_wmean B cells AAACGCTGGTTCTT 0       0.644
 9 corr_wmean B cells AAACGCTGTAGCCA 0.297   0.152
10 corr_wmean B cells AAACGCTGTTTCTG 0.294   0.172
# ℹ 48,590 more rows
…
